{
  "gameId": 5152808261,
  "platformId": "EUW1",
  "gameCreation": 1615837499306,
  "gameDuration": 1778,
  "queueId": 420,
  "mapId": 11,
  "seasonId": 13,
  "gameVersion": "11.5.361.3108",
  "gameMode": "CLASSIC",
  "gameType": "MATCHED_GAME"
}